33409;231;1;1597;1;30/04/2005;;;213;1336_0;
33410;231;1;1597;1;;;;213;1336_0;
33411;231;1;1597;1;30/04/2005;;;213;1336_0;
33412;231;1;1597;1;30/04/2005;;;213;1336_0;
33413;231;1;1597;1;30/04/2005;;;213;1336_0;
33414;231;1;1597;1;30/04/2005;;;213;1336_0;
33415;231;1;1597;1;30/04/2005;;;213;1336_0;
33417;231;1;1597;1;30/04/2005;;;213;1336_0;
33409;232;1;1597;1;05/09/2005;;;212;1336_0;
33410;232;1;1597;1;05/09/2005;;;212;1336_0;
33411;232;1;1597;1;05/09/2005;;;212;1336_0;
33412;232;1;1597;1;05/09/2005;;;212;1336_0;
33413;232;1;593;1;05/09/2005;;;212;1336_0;
33414;232;1;593;1;05/09/2005;;;212;1336_0;
33415;232;1;593;1;05/09/2005;;;212;1336_0;
33417;232;1;593;1;08/05/2008;;;212;1336_0;
33409;233;1;593;1;;;;212;1336_0;
33410;233;1;593;1;;;;212;1336_0;
33411;233;1;593;1;;;;212;1336_0;
33412;233;1;593;1;;;;212;1336_0;
33413;233;1;593;1;;;;212;1336_0;
33414;233;1;593;1;;;;212;1336_0;
33415;233;1;593;1;;;;212;1336_0;
33417;233;1;593;1;;;;212;1336_0;
