33409;PEC;7140;;;09/11/2007;157;MHNMC;70;70.55.356;3;INVEMAR;;N;2;;;1;70;;30/04/2005;9;161;;;;05/09/2005;3;;13620;;;;107;1431;1;185;00001;
33410;PEC;7141;;;09/11/2007;157;MHNMC;70;70.55.708;3;INVEMAR;;N;2;;;1;70;;30/04/2005;9;161;;;;05/09/2005;3;;13620;;;;107;1431;1;185;00001;
33411;PEC;7142;;;09/11/2007;157;MHNMC;70;70.55.497;1;INVEMAR;;N;2;;;1;70;;30/04/2005;9;161;;;;05/09/2005;3;;13620;;;;107;1431;1;185;00001;
33412;PEC;7143;;;09/11/2007;157;MHNMC;70;70.55.324;7;INVEMAR;;N;2;;;1;70;;30/04/2005;9;161;;;;05/09/2005;3;;13620;;;;107;1431;1;185;00001;
33413;PEC;7144;;;09/11/2007;157;MHNMC;70;70.55.267;1;INVEMAR;;N;2;;;1;70;;30/04/2005;9;161;;;;05/09/2005;3;;13620;;;;107;1431;1;185;00001;
33414;PEC;7145;;;12/11/2007;157;MHNMC;70;70.46.149;1;INVEMAR;;N;2;;;1;70;;30/04/2005;9;161;;;;05/09/2005;3;;13620;;;;107;1431;1;185;00001;
33415;PEC;7146;;;12/11/2007;157;MHNMC;70;70.40.2300;1;INVEMAR;;N;2;;;1;70;;30/04/2005;9;161;;;;05/09/2005;3;;13620;;;;107;1431;1;185;00001;
33417;PEC;7148;;;12/11/2007;157;MHNMC;70;70.55.2613;1;INVEMAR;;N;2;;;1;70;;30/04/2005;9;161;;;;08/05/2008;3;;13620;;;;107;1431;1;185;00001;
*******end of file*******
33409;231;1;1597;1;30/04/2005;;;213;
33410;231;1;1597;1;;;;213;
33411;231;1;1597;1;30/04/2005;;;213;
33412;231;1;1597;1;30/04/2005;;;213;
33413;231;1;1597;1;30/04/2005;;;213;
33414;231;1;1597;1;30/04/2005;;;213;
33415;231;1;1597;1;30/04/2005;;;213;
33417;231;1;1597;1;30/04/2005;;;213;
33409;232;1;1597;1;05/09/2005;;;212;
33410;232;1;1597;1;05/09/2005;;;212;
33411;232;1;1597;1;05/09/2005;;;212;
33412;232;1;1597;1;05/09/2005;;;212;
33413;232;1;593;1;05/09/2005;;;212;
33414;232;1;593;1;05/09/2005;;;212;
33415;232;1;593;1;05/09/2005;;;212;
33417;232;1;593;1;08/05/2008;;;212;
33409;233;1;593;1;;;;212;
33410;233;1;593;1;;;;212;
33411;233;1;593;1;;;;212;
33412;233;1;593;1;;;;212;
33413;233;1;593;1;;;;212;
33414;233;1;593;1;;;;212;
33415;233;1;593;1;;;;212;
33417;233;1;593;1;;;;212;
*******end of file*******
33409;128;1;
*******end of file*******
*******end of file*******
33409;;05/09/2005;;1;3;1;;
33410;;05/09/2005;;1;3;1;;
33411;;05/09/2005;;1;3;1;;
33412;;05/09/2005;;1;3;1;;
33413;;05/09/2005;;1;3;1;;
33414;;05/09/2005;;1;3;1;;
33415;;05/09/2005;;1;3;1;;
33417;;08/05/2008;;1;3;1;;
